EESchema Schematic File Version 4
EELAYER 30 0
EELAYER END
$Descr A4 11693 8268
encoding utf-8
Sheet 2 2
Title "Status LEDs"
Date "3 June 2021"
Rev "1"
Comp "Team 23"
Comment1 ""
Comment2 ""
Comment3 ""
Comment4 ""
$EndDescr
$Comp
L Device:R R?
U 1 1 60B96135
P 4000 3150
F 0 "R?" H 4070 3196 50  0000 L CNN
F 1 "R" H 4070 3105 50  0000 L CNN
F 2 "" V 3930 3150 50  0001 C CNN
F 3 "~" H 4000 3150 50  0001 C CNN
	1    4000 3150
	1    0    0    -1  
$EndComp
$Comp
L Device:R R?
U 1 1 60B967A8
P 5000 3150
F 0 "R?" H 5070 3196 50  0000 L CNN
F 1 "R" H 5070 3105 50  0000 L CNN
F 2 "" V 4930 3150 50  0001 C CNN
F 3 "~" H 5000 3150 50  0001 C CNN
	1    5000 3150
	1    0    0    -1  
$EndComp
$Comp
L Device:R R?
U 1 1 60B96B46
P 6000 3150
F 0 "R?" H 6070 3196 50  0000 L CNN
F 1 "R" H 6070 3105 50  0000 L CNN
F 2 "" V 5930 3150 50  0001 C CNN
F 3 "~" H 6000 3150 50  0001 C CNN
	1    6000 3150
	1    0    0    -1  
$EndComp
$Comp
L Device:R R?
U 1 1 60B972A4
P 7000 3150
F 0 "R?" H 7070 3196 50  0000 L CNN
F 1 "R" H 7070 3105 50  0000 L CNN
F 2 "" V 6930 3150 50  0001 C CNN
F 3 "~" H 7000 3150 50  0001 C CNN
	1    7000 3150
	1    0    0    -1  
$EndComp
$Comp
L Diode:BZX84Cxx D?
U 1 1 60B99D9D
P 4000 4150
F 0 "D?" V 3954 4230 50  0000 L CNN
F 1 "BZX84Cxx" V 4045 4230 50  0000 L CNN
F 2 "Diode_SMD:D_SOT-23_ANK" H 4000 3975 50  0001 C CNN
F 3 "https://diotec.com/tl_files/diotec/files/pdf/datasheets/bzx84c2v4.pdf" H 4000 4150 50  0001 C CNN
	1    4000 4150
	0    1    1    0   
$EndComp
$Comp
L Device:LED D?
U 1 1 60B9A924
P 4000 5150
F 0 "D?" V 4039 5032 50  0000 R CNN
F 1 "LED" V 3948 5032 50  0000 R CNN
F 2 "" H 4000 5150 50  0001 C CNN
F 3 "~" H 4000 5150 50  0001 C CNN
	1    4000 5150
	0    -1   -1   0   
$EndComp
$Comp
L Device:LED D?
U 1 1 60B9C853
P 5000 5150
F 0 "D?" V 5039 5032 50  0000 R CNN
F 1 "LED" V 4948 5032 50  0000 R CNN
F 2 "" H 5000 5150 50  0001 C CNN
F 3 "~" H 5000 5150 50  0001 C CNN
	1    5000 5150
	0    -1   -1   0   
$EndComp
$Comp
L Device:LED D?
U 1 1 60B9CED2
P 6000 5150
F 0 "D?" V 6039 5032 50  0000 R CNN
F 1 "LED" V 5948 5032 50  0000 R CNN
F 2 "" H 6000 5150 50  0001 C CNN
F 3 "~" H 6000 5150 50  0001 C CNN
	1    6000 5150
	0    -1   -1   0   
$EndComp
$Comp
L Device:LED D?
U 1 1 60B9D7C3
P 7000 5150
F 0 "D?" V 7039 5032 50  0000 R CNN
F 1 "LED" V 6948 5032 50  0000 R CNN
F 2 "" H 7000 5150 50  0001 C CNN
F 3 "~" H 7000 5150 50  0001 C CNN
	1    7000 5150
	0    -1   -1   0   
$EndComp
$Comp
L Device:D_Zener D?
U 1 1 60B9E57A
P 5000 4150
F 0 "D?" V 4954 4230 50  0000 L CNN
F 1 "D_Zener" V 5045 4230 50  0000 L CNN
F 2 "" H 5000 4150 50  0001 C CNN
F 3 "~" H 5000 4150 50  0001 C CNN
	1    5000 4150
	0    1    1    0   
$EndComp
$EndSCHEMATC
